…
``` r
library(knitr)
```

## Smell test the data

Is it a data.frame, a matrix, a vector, a list?

``` r
gapminder
```

    ## # A tibble: 1,704 x 6
    ##    country     continent  year lifeExp      pop gdpPercap
    ##    <fct>       <fct>     <int>   <dbl>    <int>     <dbl>
    ##  1 Afghanistan Asia       1952    28.8  8425333      779.
    ##  2 Afghanistan Asia       1957    30.3  9240934      821.
    ##  3 Afghanistan Asia       1962    32.0 10267083      853.
    ##  4 Afghanistan Asia       1967    34.0 11537966      836.
    ##  5 Afghanistan Asia       1972    36.1 13079460      740.
    ##  6 Afghanistan Asia       1977    38.4 14880372      786.
    ##  7 Afghanistan Asia       1982    39.9 12881816      978.
    ##  8 Afghanistan Asia       1987    40.8 13867957      852.
    ##  9 Afghanistan Asia       1992    41.7 16317921      649.
    ## 10 Afghanistan Asia       1997    41.8 22227415      635.
    ## # ... with 1,694 more rows
…
``` r
a<-gapminder%>%
  filter(year > 2000)
a
```

    ## # A tibble: 284 x 6
    ##    country     continent  year lifeExp      pop gdpPercap
    ##    <fct>       <fct>     <int>   <dbl>    <int>     <dbl>
    ##  1 Afghanistan Asia       2002    42.1 25268405      727.
    ##  2 Afghanistan Asia       2007    43.8 31889923      975.
    ##  3 Albania     Europe     2002    75.7  3508512     4604.
    ##  4 Albania     Europe     2007    76.4  3600523     5937.
    ##  5 Algeria     Africa     2002    71.0 31287142     5288.
    ##  6 Algeria     Africa     2007    72.3 33333216     6223.
    ##  7 Angola      Africa     2002    41.0 10866106     2773.
    ##  8 Angola      Africa     2007    42.7 12420476     4797.
    ##  9 Argentina   Americas   2002    74.3 38331121     8798.
    ## 10 Argentina   Americas   2007    75.3 40301927    12779.
    ## # ... with 274 more rows
…
